{
  "data": {
    "airRetrieveSeatMapReply": [
      {
        "seatmapInformation": [
          {
            "flightDateInformation": {
              "flightDate": {
                "departureDate": "280219"
              },
              "boardPointDetails": {
                "trueLocationId": "SHJ"
              },
              "offpointDetails": {
                "trueLocationId": "DEL"
              },
              "companyDetails": {
                "marketingCompany": "G9"
              },
              "flightIdentification": {
                "flightNumber": "465",
                "bookingClass": "Y"
              }
            },
            "equipmentInformation": {},
            "cabin": [
              {
                "compartmentDetails": {
                  "classDetails": {
                    "classDesignator": "Y"
                  }
                }
              }
            ],
            "row": [
              {
                "rowDetails": {
                  "seatRowNumber": 1,
                  "seatOccupationDetails": [
                    {
                      "seatColumn": "A",
                      "seatOccupation": "F",
                      "seatCharacteristic": [
                        "100"
                      ]
                    },
                    {
                      "seatColumn": "B",
                      "seatOccupation": "F",
                      "seatCharacteristic": [
                        "100"
                      ]
                    },
                    {
                      "seatColumn": "C",
                      "seatOccupation": "F",
                      "seatCharacteristic": [
                        "100"
                      ]
                    },
                    {
                      "seatColumn": "D",
                      "seatOccupation": "F",
                      "seatCharacteristic": [
                        "100"
                      ]
                    },
                    {
                      "seatColumn": "E",
                      "seatOccupation": "F",
                      "seatCharacteristic": [
                        "100"
                      ]
                    },
                    {
                      "seatColumn": "F",
                      "seatOccupation": "F",
                      "seatCharacteristic": [
                        "100"
                      ]
                    }
                  ],
                  "rowCharacteristicDetails": {}
                }
              },
              {
                "rowDetails": {
                  "seatRowNumber": 2,
                  "seatOccupationDetails": [
                    {
                      "seatColumn": "A",
                      "seatOccupation": "F",
                      "seatCharacteristic": [
                        "70"
                      ]
                    },
                    {
                      "seatColumn": "B",
                      "seatOccupation": "F",
                      "seatCharacteristic": [
                        "70"
                      ]
                    },
                    {
                      "seatColumn": "C",
                      "seatOccupation": "F",
                      "seatCharacteristic": [
                        "70"
                      ]
                    },
                    {
                      "seatColumn": "D",
                      "seatOccupation": "F",
                      "seatCharacteristic": [
                        "70"
                      ]
                    },
                    {
                      "seatColumn": "E",
                      "seatOccupation": "F",
                      "seatCharacteristic": [
                        "70"
                      ]
                    },
                    {
                      "seatColumn": "F",
                      "seatOccupation": "F",
                      "seatCharacteristic": [
                        "70"
                      ]
                    }
                  ],
                  "rowCharacteristicDetails": {}
                }
              },
              {
                "rowDetails": {
                  "seatRowNumber": 3,
                  "seatOccupationDetails": [
                    {
                      "seatColumn": "A",
                      "seatOccupation": "F",
                      "seatCharacteristic": [
                        "70"
                      ]
                    },
                    {
                      "seatColumn": "B",
                      "seatOccupation": "F",
                      "seatCharacteristic": [
                        "70"
                      ]
                    },
                    {
                      "seatColumn": "C",
                      "seatOccupation": "F",
                      "seatCharacteristic": [
                        "70"
                      ]
                    },
                    {
                      "seatColumn": "D",
                      "seatOccupation": "F",
                      "seatCharacteristic": [
                        "70"
                      ]
                    },
                    {
                      "seatColumn": "E",
                      "seatOccupation": "F",
                      "seatCharacteristic": [
                        "70"
                      ]
                    },
                    {
                      "seatColumn": "F",
                      "seatOccupation": "F",
                      "seatCharacteristic": [
                        "70"
                      ]
                    }
                  ],
                  "rowCharacteristicDetails": {}
                }
              },
              {
                "rowDetails": {
                  "seatRowNumber": 4,
                  "seatOccupationDetails": [
                    {
                      "seatColumn": "A",
                      "seatOccupation": "F",
                      "seatCharacteristic": [
                        "70"
                      ]
                    },
                    {
                      "seatColumn": "B",
                      "seatOccupation": "F",
                      "seatCharacteristic": [
                        "70"
                      ]
                    },
                    {
                      "seatColumn": "C",
                      "seatOccupation": "F",
                      "seatCharacteristic": [
                        "70"
                      ]
                    },
                    {
                      "seatColumn": "D",
                      "seatOccupation": "F",
                      "seatCharacteristic": [
                        "70"
                      ]
                    },
                    {
                      "seatColumn": "E",
                      "seatOccupation": "F",
                      "seatCharacteristic": [
                        "70"
                      ]
                    },
                    {
                      "seatColumn": "F",
                      "seatOccupation": "F",
                      "seatCharacteristic": [
                        "70"
                      ]
                    }
                  ],
                  "rowCharacteristicDetails": {}
                }
              },
              {
                "rowDetails": {
                  "seatRowNumber": 5,
                  "seatOccupationDetails": [
                    {
                      "seatColumn": "A",
                      "seatOccupation": "F",
                      "seatCharacteristic": [
                        "25"
                      ]
                    },
                    {
                      "seatColumn": "B",
                      "seatOccupation": "F",
                      "seatCharacteristic": [
                        "25"
                      ]
                    },
                    {
                      "seatColumn": "C",
                      "seatOccupation": "F",
                      "seatCharacteristic": [
                        "25"
                      ]
                    },
                    {
                      "seatColumn": "D",
                      "seatOccupation": "F",
                      "seatCharacteristic": [
                        "25"
                      ]
                    },
                    {
                      "seatColumn": "E",
                      "seatOccupation": "F",
                      "seatCharacteristic": [
                        "25"
                      ]
                    },
                    {
                      "seatColumn": "F",
                      "seatOccupation": "F",
                      "seatCharacteristic": [
                        "25"
                      ]
                    }
                  ],
                  "rowCharacteristicDetails": {}
                }
              },
              {
                "rowDetails": {
                  "seatRowNumber": 6,
                  "seatOccupationDetails": [
                    {
                      "seatColumn": "A",
                      "seatOccupation": "F",
                      "seatCharacteristic": [
                        "25"
                      ]
                    },
                    {
                      "seatColumn": "B",
                      "seatOccupation": "F",
                      "seatCharacteristic": [
                        "25"
                      ]
                    },
                    {
                      "seatColumn": "C",
                      "seatOccupation": "F",
                      "seatCharacteristic": [
                        "25"
                      ]
                    },
                    {
                      "seatColumn": "D",
                      "seatOccupation": "F",
                      "seatCharacteristic": [
                        "25"
                      ]
                    },
                    {
                      "seatColumn": "E",
                      "seatOccupation": "F",
                      "seatCharacteristic": [
                        "25"
                      ]
                    },
                    {
                      "seatColumn": "F",
                      "seatOccupation": "F",
                      "seatCharacteristic": [
                        "25"
                      ]
                    }
                  ],
                  "rowCharacteristicDetails": {}
                }
              },
              {
                "rowDetails": {
                  "seatRowNumber": 7,
                  "seatOccupationDetails": [
                    {
                      "seatColumn": "A",
                      "seatOccupation": "F",
                      "seatCharacteristic": [
                        "25"
                      ]
                    },
                    {
                      "seatColumn": "B",
                      "seatOccupation": "F",
                      "seatCharacteristic": [
                        "25"
                      ]
                    },
                    {
                      "seatColumn": "C",
                      "seatOccupation": "F",
                      "seatCharacteristic": [
                        "25"
                      ]
                    },
                    {
                      "seatColumn": "D",
                      "seatOccupation": "F",
                      "seatCharacteristic": [
                        "25"
                      ]
                    },
                    {
                      "seatColumn": "E",
                      "seatOccupation": "F",
                      "seatCharacteristic": [
                        "25"
                      ]
                    },
                    {
                      "seatColumn": "F",
                      "seatOccupation": "F",
                      "seatCharacteristic": [
                        "25"
                      ]
                    }
                  ],
                  "rowCharacteristicDetails": {}
                }
              },
              {
                "rowDetails": {
                  "seatRowNumber": 8,
                  "seatOccupationDetails": [
                    {
                      "seatColumn": "A",
                      "seatOccupation": "F",
                      "seatCharacteristic": [
                        "25"
                      ]
                    },
                    {
                      "seatColumn": "B",
                      "seatOccupation": "F",
                      "seatCharacteristic": [
                        "25"
                      ]
                    },
                    {
                      "seatColumn": "C",
                      "seatOccupation": "F",
                      "seatCharacteristic": [
                        "25"
                      ]
                    },
                    {
                      "seatColumn": "D",
                      "seatOccupation": "F",
                      "seatCharacteristic": [
                        "25"
                      ]
                    },
                    {
                      "seatColumn": "E",
                      "seatOccupation": "F",
                      "seatCharacteristic": [
                        "25"
                      ]
                    },
                    {
                      "seatColumn": "F",
                      "seatOccupation": "F",
                      "seatCharacteristic": [
                        "25"
                      ]
                    }
                  ],
                  "rowCharacteristicDetails": {}
                }
              },
              {
                "rowDetails": {
                  "seatRowNumber": 9,
                  "seatOccupationDetails": [
                    {
                      "seatColumn": "A",
                      "seatOccupation": "F",
                      "seatCharacteristic": [
                        "25"
                      ]
                    },
                    {
                      "seatColumn": "B",
                      "seatOccupation": "F",
                      "seatCharacteristic": [
                        "25"
                      ]
                    },
                    {
                      "seatColumn": "C",
                      "seatOccupation": "F",
                      "seatCharacteristic": [
                        "25"
                      ]
                    },
                    {
                      "seatColumn": "D",
                      "seatOccupation": "F",
                      "seatCharacteristic": [
                        "25"
                      ]
                    },
                    {
                      "seatColumn": "E",
                      "seatOccupation": "F",
                      "seatCharacteristic": [
                        "25"
                      ]
                    },
                    {
                      "seatColumn": "F",
                      "seatOccupation": "F",
                      "seatCharacteristic": [
                        "25"
                      ]
                    }
                  ],
                  "rowCharacteristicDetails": {}
                }
              },
              {
                "rowDetails": {
                  "seatRowNumber": 10,
                  "seatOccupationDetails": [
                    {
                      "seatColumn": "A",
                      "seatOccupation": "F",
                      "seatCharacteristic": [
                        "25"
                      ]
                    },
                    {
                      "seatColumn": "B",
                      "seatOccupation": "F",
                      "seatCharacteristic": [
                        "25"
                      ]
                    },
                    {
                      "seatColumn": "C",
                      "seatOccupation": "F",
                      "seatCharacteristic": [
                        "25"
                      ]
                    },
                    {
                      "seatColumn": "D",
                      "seatOccupation": "F",
                      "seatCharacteristic": [
                        "25"
                      ]
                    },
                    {
                      "seatColumn": "E",
                      "seatOccupation": "F",
                      "seatCharacteristic": [
                        "25"
                      ]
                    },
                    {
                      "seatColumn": "F",
                      "seatOccupation": "F",
                      "seatCharacteristic": [
                        "25"
                      ]
                    }
                  ],
                  "rowCharacteristicDetails": {}
                }
              },
              {
                "rowDetails": {
                  "seatRowNumber": 11,
                  "seatOccupationDetails": [
                    {
                      "seatColumn": "A",
                      "seatOccupation": "F",
                      "seatCharacteristic": [
                        "80"
                      ]
                    },
                    {
                      "seatColumn": "B",
                      "seatOccupation": "F",
                      "seatCharacteristic": [
                        "80"
                      ]
                    },
                    {
                      "seatColumn": "C",
                      "seatOccupation": "F",
                      "seatCharacteristic": [
                        "80"
                      ]
                    },
                    {
                      "seatColumn": "D",
                      "seatOccupation": "F",
                      "seatCharacteristic": [
                        "80"
                      ]
                    },
                    {
                      "seatColumn": "E",
                      "seatOccupation": "F",
                      "seatCharacteristic": [
                        "80"
                      ]
                    },
                    {
                      "seatColumn": "F",
                      "seatOccupation": "F",
                      "seatCharacteristic": [
                        "80"
                      ]
                    }
                  ],
                  "rowCharacteristicDetails": {}
                }
              },
              {
                "rowDetails": {
                  "seatRowNumber": 12,
                  "seatOccupationDetails": [
                    {
                      "seatColumn": "A",
                      "seatOccupation": "F",
                      "seatCharacteristic": [
                        "80"
                      ]
                    },
                    {
                      "seatColumn": "B",
                      "seatOccupation": "F",
                      "seatCharacteristic": [
                        "80"
                      ]
                    },
                    {
                      "seatColumn": "C",
                      "seatOccupation": "F",
                      "seatCharacteristic": [
                        "80"
                      ]
                    },
                    {
                      "seatColumn": "D",
                      "seatOccupation": "F",
                      "seatCharacteristic": [
                        "80"
                      ]
                    },
                    {
                      "seatColumn": "E",
                      "seatOccupation": "F",
                      "seatCharacteristic": [
                        "80"
                      ]
                    },
                    {
                      "seatColumn": "F",
                      "seatOccupation": "F",
                      "seatCharacteristic": [
                        "80"
                      ]
                    }
                  ],
                  "rowCharacteristicDetails": {}
                }
              },
              {
                "rowDetails": {
                  "seatRowNumber": 13,
                  "seatOccupationDetails": [
                    {
                      "seatColumn": "A",
                      "seatOccupation": "F",
                      "seatCharacteristic": [
                        "5"
                      ]
                    },
                    {
                      "seatColumn": "B",
                      "seatOccupation": "F",
                      "seatCharacteristic": [
                        "5"
                      ]
                    },
                    {
                      "seatColumn": "C",
                      "seatOccupation": "F",
                      "seatCharacteristic": [
                        "5"
                      ]
                    },
                    {
                      "seatColumn": "D",
                      "seatOccupation": "F",
                      "seatCharacteristic": [
                        "5"
                      ]
                    },
                    {
                      "seatColumn": "E",
                      "seatOccupation": "F",
                      "seatCharacteristic": [
                        "5"
                      ]
                    },
                    {
                      "seatColumn": "F",
                      "seatOccupation": "F",
                      "seatCharacteristic": [
                        "5"
                      ]
                    }
                  ],
                  "rowCharacteristicDetails": {}
                }
              },
              {
                "rowDetails": {
                  "seatRowNumber": 14,
                  "seatOccupationDetails": [
                    {
                      "seatColumn": "A",
                      "seatOccupation": "F",
                      "seatCharacteristic": [
                        "5"
                      ]
                    },
                    {
                      "seatColumn": "B",
                      "seatOccupation": "F",
                      "seatCharacteristic": [
                        "5"
                      ]
                    },
                    {
                      "seatColumn": "C",
                      "seatOccupation": "F",
                      "seatCharacteristic": [
                        "5"
                      ]
                    },
                    {
                      "seatColumn": "D",
                      "seatOccupation": "F",
                      "seatCharacteristic": [
                        "5"
                      ]
                    },
                    {
                      "seatColumn": "E",
                      "seatOccupation": "F",
                      "seatCharacteristic": [
                        "5"
                      ]
                    },
                    {
                      "seatColumn": "F",
                      "seatOccupation": "F",
                      "seatCharacteristic": [
                        "5"
                      ]
                    }
                  ],
                  "rowCharacteristicDetails": {}
                }
              },
              {
                "rowDetails": {
                  "seatRowNumber": 15,
                  "seatOccupationDetails": [
                    {
                      "seatColumn": "A",
                      "seatOccupation": "F",
                      "seatCharacteristic": [
                        "5"
                      ]
                    },
                    {
                      "seatColumn": "B",
                      "seatOccupation": "F",
                      "seatCharacteristic": [
                        "5"
                      ]
                    },
                    {
                      "seatColumn": "C",
                      "seatOccupation": "F",
                      "seatCharacteristic": [
                        "5"
                      ]
                    },
                    {
                      "seatColumn": "D",
                      "seatOccupation": "F",
                      "seatCharacteristic": [
                        "5"
                      ]
                    },
                    {
                      "seatColumn": "E",
                      "seatOccupation": "F",
                      "seatCharacteristic": [
                        "5"
                      ]
                    },
                    {
                      "seatColumn": "F",
                      "seatOccupation": "F",
                      "seatCharacteristic": [
                        "5"
                      ]
                    }
                  ],
                  "rowCharacteristicDetails": {}
                }
              },
              {
                "rowDetails": {
                  "seatRowNumber": 16,
                  "seatOccupationDetails": [
                    {
                      "seatColumn": "A",
                      "seatOccupation": "F",
                      "seatCharacteristic": [
                        "5"
                      ]
                    },
                    {
                      "seatColumn": "B",
                      "seatOccupation": "F",
                      "seatCharacteristic": [
                        "5"
                      ]
                    },
                    {
                      "seatColumn": "C",
                      "seatOccupation": "F",
                      "seatCharacteristic": [
                        "5"
                      ]
                    },
                    {
                      "seatColumn": "D",
                      "seatOccupation": "F",
                      "seatCharacteristic": [
                        "5"
                      ]
                    },
                    {
                      "seatColumn": "E",
                      "seatOccupation": "F",
                      "seatCharacteristic": [
                        "5"
                      ]
                    },
                    {
                      "seatColumn": "F",
                      "seatOccupation": "F",
                      "seatCharacteristic": [
                        "5"
                      ]
                    }
                  ],
                  "rowCharacteristicDetails": {}
                }
              },
              {
                "rowDetails": {
                  "seatRowNumber": 17,
                  "seatOccupationDetails": [
                    {
                      "seatColumn": "A",
                      "seatOccupation": "F",
                      "seatCharacteristic": [
                        "5"
                      ]
                    },
                    {
                      "seatColumn": "B",
                      "seatOccupation": "F",
                      "seatCharacteristic": [
                        "5"
                      ]
                    },
                    {
                      "seatColumn": "C",
                      "seatOccupation": "F",
                      "seatCharacteristic": [
                        "5"
                      ]
                    },
                    {
                      "seatColumn": "D",
                      "seatOccupation": "F",
                      "seatCharacteristic": [
                        "5"
                      ]
                    },
                    {
                      "seatColumn": "E",
                      "seatOccupation": "F",
                      "seatCharacteristic": [
                        "5"
                      ]
                    },
                    {
                      "seatColumn": "F",
                      "seatOccupation": "F",
                      "seatCharacteristic": [
                        "5"
                      ]
                    }
                  ],
                  "rowCharacteristicDetails": {}
                }
              },
              {
                "rowDetails": {
                  "seatRowNumber": 18,
                  "seatOccupationDetails": [
                    {
                      "seatColumn": "A",
                      "seatOccupation": "F",
                      "seatCharacteristic": [
                        "5"
                      ]
                    },
                    {
                      "seatColumn": "B",
                      "seatOccupation": "F",
                      "seatCharacteristic": [
                        "5"
                      ]
                    },
                    {
                      "seatColumn": "C",
                      "seatOccupation": "F",
                      "seatCharacteristic": [
                        "5"
                      ]
                    },
                    {
                      "seatColumn": "D",
                      "seatOccupation": "F",
                      "seatCharacteristic": [
                        "5"
                      ]
                    },
                    {
                      "seatColumn": "E",
                      "seatOccupation": "F",
                      "seatCharacteristic": [
                        "5"
                      ]
                    },
                    {
                      "seatColumn": "F",
                      "seatOccupation": "F",
                      "seatCharacteristic": [
                        "5"
                      ]
                    }
                  ],
                  "rowCharacteristicDetails": {}
                }
              },
              {
                "rowDetails": {
                  "seatRowNumber": 19,
                  "seatOccupationDetails": [
                    {
                      "seatColumn": "A",
                      "seatOccupation": "F",
                      "seatCharacteristic": [
                        "5"
                      ]
                    },
                    {
                      "seatColumn": "B",
                      "seatOccupation": "F",
                      "seatCharacteristic": [
                        "5"
                      ]
                    },
                    {
                      "seatColumn": "C",
                      "seatOccupation": "F",
                      "seatCharacteristic": [
                        "5"
                      ]
                    },
                    {
                      "seatColumn": "D",
                      "seatOccupation": "F",
                      "seatCharacteristic": [
                        "5"
                      ]
                    },
                    {
                      "seatColumn": "E",
                      "seatOccupation": "F",
                      "seatCharacteristic": [
                        "5"
                      ]
                    },
                    {
                      "seatColumn": "F",
                      "seatOccupation": "F",
                      "seatCharacteristic": [
                        "5"
                      ]
                    }
                  ],
                  "rowCharacteristicDetails": {}
                }
              },
              {
                "rowDetails": {
                  "seatRowNumber": 20,
                  "seatOccupationDetails": [
                    {
                      "seatColumn": "A",
                      "seatOccupation": "F",
                      "seatCharacteristic": [
                        "5"
                      ]
                    },
                    {
                      "seatColumn": "B",
                      "seatOccupation": "F",
                      "seatCharacteristic": [
                        "5"
                      ]
                    },
                    {
                      "seatColumn": "C",
                      "seatOccupation": "F",
                      "seatCharacteristic": [
                        "5"
                      ]
                    },
                    {
                      "seatColumn": "D",
                      "seatOccupation": "F",
                      "seatCharacteristic": [
                        "5"
                      ]
                    },
                    {
                      "seatColumn": "E",
                      "seatOccupation": "F",
                      "seatCharacteristic": [
                        "5"
                      ]
                    },
                    {
                      "seatColumn": "F",
                      "seatOccupation": "F",
                      "seatCharacteristic": [
                        "5"
                      ]
                    }
                  ],
                  "rowCharacteristicDetails": {}
                }
              },
              {
                "rowDetails": {
                  "seatRowNumber": 21,
                  "seatOccupationDetails": [
                    {
                      "seatColumn": "A",
                      "seatOccupation": "F",
                      "seatCharacteristic": [
                        "5"
                      ]
                    },
                    {
                      "seatColumn": "B",
                      "seatOccupation": "F",
                      "seatCharacteristic": [
                        "5"
                      ]
                    },
                    {
                      "seatColumn": "C",
                      "seatOccupation": "F",
                      "seatCharacteristic": [
                        "5"
                      ]
                    },
                    {
                      "seatColumn": "D",
                      "seatOccupation": "F",
                      "seatCharacteristic": [
                        "5"
                      ]
                    },
                    {
                      "seatColumn": "E",
                      "seatOccupation": "F",
                      "seatCharacteristic": [
                        "5"
                      ]
                    },
                    {
                      "seatColumn": "F",
                      "seatOccupation": "F",
                      "seatCharacteristic": [
                        "5"
                      ]
                    }
                  ],
                  "rowCharacteristicDetails": {}
                }
              },
              {
                "rowDetails": {
                  "seatRowNumber": 22,
                  "seatOccupationDetails": [
                    {
                      "seatColumn": "A",
                      "seatOccupation": "F",
                      "seatCharacteristic": [
                        "5"
                      ]
                    },
                    {
                      "seatColumn": "B",
                      "seatOccupation": "F",
                      "seatCharacteristic": [
                        "5"
                      ]
                    },
                    {
                      "seatColumn": "C",
                      "seatOccupation": "F",
                      "seatCharacteristic": [
                        "5"
                      ]
                    },
                    {
                      "seatColumn": "D",
                      "seatOccupation": "F",
                      "seatCharacteristic": [
                        "5"
                      ]
                    },
                    {
                      "seatColumn": "E",
                      "seatOccupation": "F",
                      "seatCharacteristic": [
                        "5"
                      ]
                    },
                    {
                      "seatColumn": "F",
                      "seatOccupation": "F",
                      "seatCharacteristic": [
                        "5"
                      ]
                    }
                  ],
                  "rowCharacteristicDetails": {}
                }
              },
              {
                "rowDetails": {
                  "seatRowNumber": 23,
                  "seatOccupationDetails": [
                    {
                      "seatColumn": "A",
                      "seatOccupation": "F",
                      "seatCharacteristic": [
                        "5"
                      ]
                    },
                    {
                      "seatColumn": "B",
                      "seatOccupation": "F",
                      "seatCharacteristic": [
                        "5"
                      ]
                    },
                    {
                      "seatColumn": "C",
                      "seatOccupation": "F",
                      "seatCharacteristic": [
                        "5"
                      ]
                    },
                    {
                      "seatColumn": "D",
                      "seatOccupation": "F",
                      "seatCharacteristic": [
                        "5"
                      ]
                    },
                    {
                      "seatColumn": "E",
                      "seatOccupation": "F",
                      "seatCharacteristic": [
                        "5"
                      ]
                    },
                    {
                      "seatColumn": "F",
                      "seatOccupation": "F",
                      "seatCharacteristic": [
                        "5"
                      ]
                    }
                  ],
                  "rowCharacteristicDetails": {}
                }
              },
              {
                "rowDetails": {
                  "seatRowNumber": 24,
                  "seatOccupationDetails": [
                    {
                      "seatColumn": "A",
                      "seatOccupation": "F",
                      "seatCharacteristic": [
                        "5"
                      ]
                    },
                    {
                      "seatColumn": "B",
                      "seatOccupation": "F",
                      "seatCharacteristic": [
                        "5"
                      ]
                    },
                    {
                      "seatColumn": "C",
                      "seatOccupation": "F",
                      "seatCharacteristic": [
                        "5"
                      ]
                    },
                    {
                      "seatColumn": "D",
                      "seatOccupation": "F",
                      "seatCharacteristic": [
                        "5"
                      ]
                    },
                    {
                      "seatColumn": "E",
                      "seatOccupation": "F",
                      "seatCharacteristic": [
                        "5"
                      ]
                    },
                    {
                      "seatColumn": "F",
                      "seatOccupation": "F",
                      "seatCharacteristic": [
                        "5"
                      ]
                    }
                  ],
                  "rowCharacteristicDetails": {}
                }
              },
              {
                "rowDetails": {
                  "seatRowNumber": 25,
                  "seatOccupationDetails": [
                    {
                      "seatColumn": "A",
                      "seatOccupation": "F",
                      "seatCharacteristic": [
                        "5"
                      ]
                    },
                    {
                      "seatColumn": "B",
                      "seatOccupation": "F",
                      "seatCharacteristic": [
                        "5"
                      ]
                    },
                    {
                      "seatColumn": "C",
                      "seatOccupation": "F",
                      "seatCharacteristic": [
                        "5"
                      ]
                    },
                    {
                      "seatColumn": "D",
                      "seatOccupation": "F",
                      "seatCharacteristic": [
                        "5"
                      ]
                    },
                    {
                      "seatColumn": "E",
                      "seatOccupation": "F",
                      "seatCharacteristic": [
                        "5"
                      ]
                    },
                    {
                      "seatColumn": "F",
                      "seatOccupation": "F",
                      "seatCharacteristic": [
                        "5"
                      ]
                    }
                  ],
                  "rowCharacteristicDetails": {}
                }
              },
              {
                "rowDetails": {
                  "seatRowNumber": 26,
                  "seatOccupationDetails": [
                    {
                      "seatColumn": "A",
                      "seatOccupation": "F",
                      "seatCharacteristic": [
                        "5"
                      ]
                    },
                    {
                      "seatColumn": "B",
                      "seatOccupation": "F",
                      "seatCharacteristic": [
                        "5"
                      ]
                    },
                    {
                      "seatColumn": "C",
                      "seatOccupation": "F",
                      "seatCharacteristic": [
                        "5"
                      ]
                    },
                    {
                      "seatColumn": "D",
                      "seatOccupation": "F",
                      "seatCharacteristic": [
                        "5"
                      ]
                    },
                    {
                      "seatColumn": "E",
                      "seatOccupation": "F",
                      "seatCharacteristic": [
                        "5"
                      ]
                    },
                    {
                      "seatColumn": "F",
                      "seatOccupation": "F",
                      "seatCharacteristic": [
                        "5"
                      ]
                    }
                  ],
                  "rowCharacteristicDetails": {}
                }
              },
              {
                "rowDetails": {
                  "seatRowNumber": 27,
                  "seatOccupationDetails": [
                    {
                      "seatColumn": "A",
                      "seatOccupation": "F",
                      "seatCharacteristic": [
                        "5"
                      ]
                    },
                    {
                      "seatColumn": "B",
                      "seatOccupation": "F",
                      "seatCharacteristic": [
                        "5"
                      ]
                    },
                    {
                      "seatColumn": "C",
                      "seatOccupation": "F",
                      "seatCharacteristic": [
                        "5"
                      ]
                    },
                    {
                      "seatColumn": "D",
                      "seatOccupation": "F",
                      "seatCharacteristic": [
                        "5"
                      ]
                    },
                    {
                      "seatColumn": "E",
                      "seatOccupation": "F",
                      "seatCharacteristic": [
                        "5"
                      ]
                    },
                    {
                      "seatColumn": "F",
                      "seatOccupation": "F",
                      "seatCharacteristic": [
                        "5"
                      ]
                    }
                  ],
                  "rowCharacteristicDetails": {}
                }
              },
              {
                "rowDetails": {
                  "seatRowNumber": 28,
                  "seatOccupationDetails": [
                    {
                      "seatColumn": "A",
                      "seatOccupation": "F",
                      "seatCharacteristic": [
                        "5"
                      ]
                    },
                    {
                      "seatColumn": "B",
                      "seatOccupation": "F",
                      "seatCharacteristic": [
                        "5"
                      ]
                    },
                    {
                      "seatColumn": "C",
                      "seatOccupation": "F",
                      "seatCharacteristic": [
                        "5"
                      ]
                    },
                    {
                      "seatColumn": "D",
                      "seatOccupation": "F",
                      "seatCharacteristic": [
                        "5"
                      ]
                    },
                    {
                      "seatColumn": "E",
                      "seatOccupation": "F",
                      "seatCharacteristic": [
                        "5"
                      ]
                    },
                    {
                      "seatColumn": "F",
                      "seatOccupation": "F",
                      "seatCharacteristic": [
                        "5"
                      ]
                    }
                  ],
                  "rowCharacteristicDetails": {}
                }
              }
            ]
          },
          {
            "flightDateInformation": {
              "flightDate": {
                "departureDate": "270219"
              },
              "boardPointDetails": {
                "trueLocationId": "DEL"
              },
              "offpointDetails": {
                "trueLocationId": "SHJ"
              },
              "companyDetails": {
                "marketingCompany": "G9"
              },
              "flightIdentification": {
                "flightNumber": "530",
                "bookingClass": "Y"
              }
            },
            "equipmentInformation": {},
            "cabin": [
              {
                "compartmentDetails": {
                  "classDetails": {
                    "classDesignator": "Y"
                  }
                }
              }
            ],
            "row": [
              {
                "rowDetails": {
                  "seatRowNumber": 1,
                  "seatOccupationDetails": [
                    {
                      "seatColumn": "A",
                      "seatOccupation": "F",
                      "seatCharacteristic": [
                        "100"
                      ]
                    },
                    {
                      "seatColumn": "B",
                      "seatOccupation": "F",
                      "seatCharacteristic": [
                        "100"
                      ]
                    },
                    {
                      "seatColumn": "C",
                      "seatOccupation": "F",
                      "seatCharacteristic": [
                        "100"
                      ]
                    },
                    {
                      "seatColumn": "D",
                      "seatOccupation": "F",
                      "seatCharacteristic": [
                        "100"
                      ]
                    },
                    {
                      "seatColumn": "E",
                      "seatOccupation": "F",
                      "seatCharacteristic": [
                        "100"
                      ]
                    },
                    {
                      "seatColumn": "F",
                      "seatOccupation": "F",
                      "seatCharacteristic": [
                        "100"
                      ]
                    }
                  ],
                  "rowCharacteristicDetails": {}
                }
              },
              {
                "rowDetails": {
                  "seatRowNumber": 2,
                  "seatOccupationDetails": [
                    {
                      "seatColumn": "A",
                      "seatOccupation": "F",
                      "seatCharacteristic": [
                        "70"
                      ]
                    },
                    {
                      "seatColumn": "B",
                      "seatOccupation": "F",
                      "seatCharacteristic": [
                        "70"
                      ]
                    },
                    {
                      "seatColumn": "C",
                      "seatOccupation": "F",
                      "seatCharacteristic": [
                        "70"
                      ]
                    },
                    {
                      "seatColumn": "D",
                      "seatOccupation": "F",
                      "seatCharacteristic": [
                        "70"
                      ]
                    },
                    {
                      "seatColumn": "E",
                      "seatOccupation": "F",
                      "seatCharacteristic": [
                        "70"
                      ]
                    },
                    {
                      "seatColumn": "F",
                      "seatOccupation": "F",
                      "seatCharacteristic": [
                        "70"
                      ]
                    }
                  ],
                  "rowCharacteristicDetails": {}
                }
              },
              {
                "rowDetails": {
                  "seatRowNumber": 3,
                  "seatOccupationDetails": [
                    {
                      "seatColumn": "A",
                      "seatOccupation": "F",
                      "seatCharacteristic": [
                        "70"
                      ]
                    },
                    {
                      "seatColumn": "B",
                      "seatOccupation": "F",
                      "seatCharacteristic": [
                        "70"
                      ]
                    },
                    {
                      "seatColumn": "C",
                      "seatOccupation": "F",
                      "seatCharacteristic": [
                        "70"
                      ]
                    },
                    {
                      "seatColumn": "D",
                      "seatOccupation": "F",
                      "seatCharacteristic": [
                        "70"
                      ]
                    },
                    {
                      "seatColumn": "E",
                      "seatOccupation": "F",
                      "seatCharacteristic": [
                        "70"
                      ]
                    },
                    {
                      "seatColumn": "F",
                      "seatOccupation": "F",
                      "seatCharacteristic": [
                        "70"
                      ]
                    }
                  ],
                  "rowCharacteristicDetails": {}
                }
              },
              {
                "rowDetails": {
                  "seatRowNumber": 4,
                  "seatOccupationDetails": [
                    {
                      "seatColumn": "A",
                      "seatOccupation": "F",
                      "seatCharacteristic": [
                        "70"
                      ]
                    },
                    {
                      "seatColumn": "B",
                      "seatOccupation": "F",
                      "seatCharacteristic": [
                        "70"
                      ]
                    },
                    {
                      "seatColumn": "C",
                      "seatOccupation": "F",
                      "seatCharacteristic": [
                        "70"
                      ]
                    },
                    {
                      "seatColumn": "D",
                      "seatOccupation": "F",
                      "seatCharacteristic": [
                        "70"
                      ]
                    },
                    {
                      "seatColumn": "E",
                      "seatOccupation": "F",
                      "seatCharacteristic": [
                        "70"
                      ]
                    },
                    {
                      "seatColumn": "F",
                      "seatOccupation": "F",
                      "seatCharacteristic": [
                        "70"
                      ]
                    }
                  ],
                  "rowCharacteristicDetails": {}
                }
              },
              {
                "rowDetails": {
                  "seatRowNumber": 5,
                  "seatOccupationDetails": [
                    {
                      "seatColumn": "A",
                      "seatOccupation": "F",
                      "seatCharacteristic": [
                        "25"
                      ]
                    },
                    {
                      "seatColumn": "B",
                      "seatOccupation": "F",
                      "seatCharacteristic": [
                        "25"
                      ]
                    },
                    {
                      "seatColumn": "C",
                      "seatOccupation": "F",
                      "seatCharacteristic": [
                        "25"
                      ]
                    },
                    {
                      "seatColumn": "D",
                      "seatOccupation": "F",
                      "seatCharacteristic": [
                        "25"
                      ]
                    },
                    {
                      "seatColumn": "E",
                      "seatOccupation": "F",
                      "seatCharacteristic": [
                        "25"
                      ]
                    },
                    {
                      "seatColumn": "F",
                      "seatOccupation": "F",
                      "seatCharacteristic": [
                        "25"
                      ]
                    }
                  ],
                  "rowCharacteristicDetails": {}
                }
              },
              {
                "rowDetails": {
                  "seatRowNumber": 6,
                  "seatOccupationDetails": [
                    {
                      "seatColumn": "A",
                      "seatOccupation": "F",
                      "seatCharacteristic": [
                        "25"
                      ]
                    },
                    {
                      "seatColumn": "B",
                      "seatOccupation": "F",
                      "seatCharacteristic": [
                        "25"
                      ]
                    },
                    {
                      "seatColumn": "C",
                      "seatOccupation": "F",
                      "seatCharacteristic": [
                        "25"
                      ]
                    },
                    {
                      "seatColumn": "D",
                      "seatOccupation": "F",
                      "seatCharacteristic": [
                        "25"
                      ]
                    },
                    {
                      "seatColumn": "E",
                      "seatOccupation": "F",
                      "seatCharacteristic": [
                        "25"
                      ]
                    },
                    {
                      "seatColumn": "F",
                      "seatOccupation": "F",
                      "seatCharacteristic": [
                        "25"
                      ]
                    }
                  ],
                  "rowCharacteristicDetails": {}
                }
              },
              {
                "rowDetails": {
                  "seatRowNumber": 7,
                  "seatOccupationDetails": [
                    {
                      "seatColumn": "A",
                      "seatOccupation": "F",
                      "seatCharacteristic": [
                        "25"
                      ]
                    },
                    {
                      "seatColumn": "B",
                      "seatOccupation": "F",
                      "seatCharacteristic": [
                        "25"
                      ]
                    },
                    {
                      "seatColumn": "C",
                      "seatOccupation": "F",
                      "seatCharacteristic": [
                        "25"
                      ]
                    },
                    {
                      "seatColumn": "D",
                      "seatOccupation": "F",
                      "seatCharacteristic": [
                        "25"
                      ]
                    },
                    {
                      "seatColumn": "E",
                      "seatOccupation": "F",
                      "seatCharacteristic": [
                        "25"
                      ]
                    },
                    {
                      "seatColumn": "F",
                      "seatOccupation": "F",
                      "seatCharacteristic": [
                        "25"
                      ]
                    }
                  ],
                  "rowCharacteristicDetails": {}
                }
              },
              {
                "rowDetails": {
                  "seatRowNumber": 8,
                  "seatOccupationDetails": [
                    {
                      "seatColumn": "A",
                      "seatOccupation": "F",
                      "seatCharacteristic": [
                        "25"
                      ]
                    },
                    {
                      "seatColumn": "B",
                      "seatOccupation": "F",
                      "seatCharacteristic": [
                        "25"
                      ]
                    },
                    {
                      "seatColumn": "C",
                      "seatOccupation": "F",
                      "seatCharacteristic": [
                        "25"
                      ]
                    },
                    {
                      "seatColumn": "D",
                      "seatOccupation": "F",
                      "seatCharacteristic": [
                        "25"
                      ]
                    },
                    {
                      "seatColumn": "E",
                      "seatOccupation": "F",
                      "seatCharacteristic": [
                        "25"
                      ]
                    },
                    {
                      "seatColumn": "F",
                      "seatOccupation": "F",
                      "seatCharacteristic": [
                        "25"
                      ]
                    }
                  ],
                  "rowCharacteristicDetails": {}
                }
              },
              {
                "rowDetails": {
                  "seatRowNumber": 9,
                  "seatOccupationDetails": [
                    {
                      "seatColumn": "A",
                      "seatOccupation": "F",
                      "seatCharacteristic": [
                        "25"
                      ]
                    },
                    {
                      "seatColumn": "B",
                      "seatOccupation": "F",
                      "seatCharacteristic": [
                        "25"
                      ]
                    },
                    {
                      "seatColumn": "C",
                      "seatOccupation": "F",
                      "seatCharacteristic": [
                        "25"
                      ]
                    },
                    {
                      "seatColumn": "D",
                      "seatOccupation": "F",
                      "seatCharacteristic": [
                        "25"
                      ]
                    },
                    {
                      "seatColumn": "E",
                      "seatOccupation": "F",
                      "seatCharacteristic": [
                        "25"
                      ]
                    },
                    {
                      "seatColumn": "F",
                      "seatOccupation": "F",
                      "seatCharacteristic": [
                        "25"
                      ]
                    }
                  ],
                  "rowCharacteristicDetails": {}
                }
              },
              {
                "rowDetails": {
                  "seatRowNumber": 10,
                  "seatOccupationDetails": [
                    {
                      "seatColumn": "A",
                      "seatOccupation": "F",
                      "seatCharacteristic": [
                        "25"
                      ]
                    },
                    {
                      "seatColumn": "B",
                      "seatOccupation": "F",
                      "seatCharacteristic": [
                        "25"
                      ]
                    },
                    {
                      "seatColumn": "C",
                      "seatOccupation": "F",
                      "seatCharacteristic": [
                        "25"
                      ]
                    },
                    {
                      "seatColumn": "D",
                      "seatOccupation": "F",
                      "seatCharacteristic": [
                        "25"
                      ]
                    },
                    {
                      "seatColumn": "E",
                      "seatOccupation": "F",
                      "seatCharacteristic": [
                        "25"
                      ]
                    },
                    {
                      "seatColumn": "F",
                      "seatOccupation": "F",
                      "seatCharacteristic": [
                        "25"
                      ]
                    }
                  ],
                  "rowCharacteristicDetails": {}
                }
              },
              {
                "rowDetails": {
                  "seatRowNumber": 11,
                  "seatOccupationDetails": [
                    {
                      "seatColumn": "A",
                      "seatOccupation": "F",
                      "seatCharacteristic": [
                        "80"
                      ]
                    },
                    {
                      "seatColumn": "B",
                      "seatOccupation": "F",
                      "seatCharacteristic": [
                        "80"
                      ]
                    },
                    {
                      "seatColumn": "C",
                      "seatOccupation": "F",
                      "seatCharacteristic": [
                        "80"
                      ]
                    },
                    {
                      "seatColumn": "D",
                      "seatOccupation": "F",
                      "seatCharacteristic": [
                        "80"
                      ]
                    },
                    {
                      "seatColumn": "E",
                      "seatOccupation": "F",
                      "seatCharacteristic": [
                        "80"
                      ]
                    },
                    {
                      "seatColumn": "F",
                      "seatOccupation": "F",
                      "seatCharacteristic": [
                        "80"
                      ]
                    }
                  ],
                  "rowCharacteristicDetails": {}
                }
              },
              {
                "rowDetails": {
                  "seatRowNumber": 12,
                  "seatOccupationDetails": [
                    {
                      "seatColumn": "A",
                      "seatOccupation": "F",
                      "seatCharacteristic": [
                        "80"
                      ]
                    },
                    {
                      "seatColumn": "B",
                      "seatOccupation": "F",
                      "seatCharacteristic": [
                        "80"
                      ]
                    },
                    {
                      "seatColumn": "C",
                      "seatOccupation": "F",
                      "seatCharacteristic": [
                        "80"
                      ]
                    },
                    {
                      "seatColumn": "D",
                      "seatOccupation": "F",
                      "seatCharacteristic": [
                        "80"
                      ]
                    },
                    {
                      "seatColumn": "E",
                      "seatOccupation": "F",
                      "seatCharacteristic": [
                        "80"
                      ]
                    },
                    {
                      "seatColumn": "F",
                      "seatOccupation": "F",
                      "seatCharacteristic": [
                        "80"
                      ]
                    }
                  ],
                  "rowCharacteristicDetails": {}
                }
              },
              {
                "rowDetails": {
                  "seatRowNumber": 13,
                  "seatOccupationDetails": [
                    {
                      "seatColumn": "A",
                      "seatOccupation": "F",
                      "seatCharacteristic": [
                        "5"
                      ]
                    },
                    {
                      "seatColumn": "B",
                      "seatOccupation": "F",
                      "seatCharacteristic": [
                        "5"
                      ]
                    },
                    {
                      "seatColumn": "C",
                      "seatOccupation": "F",
                      "seatCharacteristic": [
                        "5"
                      ]
                    },
                    {
                      "seatColumn": "D",
                      "seatOccupation": "F",
                      "seatCharacteristic": [
                        "5"
                      ]
                    },
                    {
                      "seatColumn": "E",
                      "seatOccupation": "F",
                      "seatCharacteristic": [
                        "5"
                      ]
                    },
                    {
                      "seatColumn": "F",
                      "seatOccupation": "F",
                      "seatCharacteristic": [
                        "5"
                      ]
                    }
                  ],
                  "rowCharacteristicDetails": {}
                }
              },
              {
                "rowDetails": {
                  "seatRowNumber": 14,
                  "seatOccupationDetails": [
                    {
                      "seatColumn": "A",
                      "seatOccupation": "F",
                      "seatCharacteristic": [
                        "5"
                      ]
                    },
                    {
                      "seatColumn": "B",
                      "seatOccupation": "F",
                      "seatCharacteristic": [
                        "5"
                      ]
                    },
                    {
                      "seatColumn": "C",
                      "seatOccupation": "F",
                      "seatCharacteristic": [
                        "5"
                      ]
                    },
                    {
                      "seatColumn": "D",
                      "seatOccupation": "F",
                      "seatCharacteristic": [
                        "5"
                      ]
                    },
                    {
                      "seatColumn": "E",
                      "seatOccupation": "F",
                      "seatCharacteristic": [
                        "5"
                      ]
                    },
                    {
                      "seatColumn": "F",
                      "seatOccupation": "F",
                      "seatCharacteristic": [
                        "5"
                      ]
                    }
                  ],
                  "rowCharacteristicDetails": {}
                }
              },
              {
                "rowDetails": {
                  "seatRowNumber": 15,
                  "seatOccupationDetails": [
                    {
                      "seatColumn": "A",
                      "seatOccupation": "F",
                      "seatCharacteristic": [
                        "5"
                      ]
                    },
                    {
                      "seatColumn": "B",
                      "seatOccupation": "F",
                      "seatCharacteristic": [
                        "5"
                      ]
                    },
                    {
                      "seatColumn": "C",
                      "seatOccupation": "F",
                      "seatCharacteristic": [
                        "5"
                      ]
                    },
                    {
                      "seatColumn": "D",
                      "seatOccupation": "F",
                      "seatCharacteristic": [
                        "5"
                      ]
                    },
                    {
                      "seatColumn": "E",
                      "seatOccupation": "F",
                      "seatCharacteristic": [
                        "5"
                      ]
                    },
                    {
                      "seatColumn": "F",
                      "seatOccupation": "F",
                      "seatCharacteristic": [
                        "5"
                      ]
                    }
                  ],
                  "rowCharacteristicDetails": {}
                }
              },
              {
                "rowDetails": {
                  "seatRowNumber": 16,
                  "seatOccupationDetails": [
                    {
                      "seatColumn": "A",
                      "seatOccupation": "F",
                      "seatCharacteristic": [
                        "5"
                      ]
                    },
                    {
                      "seatColumn": "B",
                      "seatOccupation": "F",
                      "seatCharacteristic": [
                        "5"
                      ]
                    },
                    {
                      "seatColumn": "C",
                      "seatOccupation": "F",
                      "seatCharacteristic": [
                        "5"
                      ]
                    },
                    {
                      "seatColumn": "D",
                      "seatOccupation": "F",
                      "seatCharacteristic": [
                        "5"
                      ]
                    },
                    {
                      "seatColumn": "E",
                      "seatOccupation": "F",
                      "seatCharacteristic": [
                        "5"
                      ]
                    },
                    {
                      "seatColumn": "F",
                      "seatOccupation": "F",
                      "seatCharacteristic": [
                        "5"
                      ]
                    }
                  ],
                  "rowCharacteristicDetails": {}
                }
              },
              {
                "rowDetails": {
                  "seatRowNumber": 17,
                  "seatOccupationDetails": [
                    {
                      "seatColumn": "A",
                      "seatOccupation": "F",
                      "seatCharacteristic": [
                        "5"
                      ]
                    },
                    {
                      "seatColumn": "B",
                      "seatOccupation": "F",
                      "seatCharacteristic": [
                        "5"
                      ]
                    },
                    {
                      "seatColumn": "C",
                      "seatOccupation": "F",
                      "seatCharacteristic": [
                        "5"
                      ]
                    },
                    {
                      "seatColumn": "D",
                      "seatOccupation": "F",
                      "seatCharacteristic": [
                        "5"
                      ]
                    },
                    {
                      "seatColumn": "E",
                      "seatOccupation": "F",
                      "seatCharacteristic": [
                        "5"
                      ]
                    },
                    {
                      "seatColumn": "F",
                      "seatOccupation": "F",
                      "seatCharacteristic": [
                        "5"
                      ]
                    }
                  ],
                  "rowCharacteristicDetails": {}
                }
              },
              {
                "rowDetails": {
                  "seatRowNumber": 18,
                  "seatOccupationDetails": [
                    {
                      "seatColumn": "A",
                      "seatOccupation": "F",
                      "seatCharacteristic": [
                        "5"
                      ]
                    },
                    {
                      "seatColumn": "B",
                      "seatOccupation": "F",
                      "seatCharacteristic": [
                        "5"
                      ]
                    },
                    {
                      "seatColumn": "C",
                      "seatOccupation": "F",
                      "seatCharacteristic": [
                        "5"
                      ]
                    },
                    {
                      "seatColumn": "D",
                      "seatOccupation": "F",
                      "seatCharacteristic": [
                        "5"
                      ]
                    },
                    {
                      "seatColumn": "E",
                      "seatOccupation": "F",
                      "seatCharacteristic": [
                        "5"
                      ]
                    },
                    {
                      "seatColumn": "F",
                      "seatOccupation": "F",
                      "seatCharacteristic": [
                        "5"
                      ]
                    }
                  ],
                  "rowCharacteristicDetails": {}
                }
              },
              {
                "rowDetails": {
                  "seatRowNumber": 19,
                  "seatOccupationDetails": [
                    {
                      "seatColumn": "A",
                      "seatOccupation": "F",
                      "seatCharacteristic": [
                        "5"
                      ]
                    },
                    {
                      "seatColumn": "B",
                      "seatOccupation": "F",
                      "seatCharacteristic": [
                        "5"
                      ]
                    },
                    {
                      "seatColumn": "C",
                      "seatOccupation": "F",
                      "seatCharacteristic": [
                        "5"
                      ]
                    },
                    {
                      "seatColumn": "D",
                      "seatOccupation": "F",
                      "seatCharacteristic": [
                        "5"
                      ]
                    },
                    {
                      "seatColumn": "E",
                      "seatOccupation": "F",
                      "seatCharacteristic": [
                        "5"
                      ]
                    },
                    {
                      "seatColumn": "F",
                      "seatOccupation": "F",
                      "seatCharacteristic": [
                        "5"
                      ]
                    }
                  ],
                  "rowCharacteristicDetails": {}
                }
              },
              {
                "rowDetails": {
                  "seatRowNumber": 20,
                  "seatOccupationDetails": [
                    {
                      "seatColumn": "A",
                      "seatOccupation": "F",
                      "seatCharacteristic": [
                        "5"
                      ]
                    },
                    {
                      "seatColumn": "B",
                      "seatOccupation": "F",
                      "seatCharacteristic": [
                        "5"
                      ]
                    },
                    {
                      "seatColumn": "C",
                      "seatOccupation": "F",
                      "seatCharacteristic": [
                        "5"
                      ]
                    },
                    {
                      "seatColumn": "D",
                      "seatOccupation": "F",
                      "seatCharacteristic": [
                        "5"
                      ]
                    },
                    {
                      "seatColumn": "E",
                      "seatOccupation": "F",
                      "seatCharacteristic": [
                        "5"
                      ]
                    },
                    {
                      "seatColumn": "F",
                      "seatOccupation": "F",
                      "seatCharacteristic": [
                        "5"
                      ]
                    }
                  ],
                  "rowCharacteristicDetails": {}
                }
              },
              {
                "rowDetails": {
                  "seatRowNumber": 21,
                  "seatOccupationDetails": [
                    {
                      "seatColumn": "A",
                      "seatOccupation": "F",
                      "seatCharacteristic": [
                        "5"
                      ]
                    },
                    {
                      "seatColumn": "B",
                      "seatOccupation": "F",
                      "seatCharacteristic": [
                        "5"
                      ]
                    },
                    {
                      "seatColumn": "C",
                      "seatOccupation": "F",
                      "seatCharacteristic": [
                        "5"
                      ]
                    },
                    {
                      "seatColumn": "D",
                      "seatOccupation": "F",
                      "seatCharacteristic": [
                        "5"
                      ]
                    },
                    {
                      "seatColumn": "E",
                      "seatOccupation": "F",
                      "seatCharacteristic": [
                        "5"
                      ]
                    },
                    {
                      "seatColumn": "F",
                      "seatOccupation": "F",
                      "seatCharacteristic": [
                        "5"
                      ]
                    }
                  ],
                  "rowCharacteristicDetails": {}
                }
              },
              {
                "rowDetails": {
                  "seatRowNumber": 22,
                  "seatOccupationDetails": [
                    {
                      "seatColumn": "A",
                      "seatOccupation": "F",
                      "seatCharacteristic": [
                        "5"
                      ]
                    },
                    {
                      "seatColumn": "B",
                      "seatOccupation": "F",
                      "seatCharacteristic": [
                        "5"
                      ]
                    },
                    {
                      "seatColumn": "C",
                      "seatOccupation": "F",
                      "seatCharacteristic": [
                        "5"
                      ]
                    },
                    {
                      "seatColumn": "D",
                      "seatOccupation": "F",
                      "seatCharacteristic": [
                        "5"
                      ]
                    },
                    {
                      "seatColumn": "E",
                      "seatOccupation": "F",
                      "seatCharacteristic": [
                        "5"
                      ]
                    },
                    {
                      "seatColumn": "F",
                      "seatOccupation": "F",
                      "seatCharacteristic": [
                        "5"
                      ]
                    }
                  ],
                  "rowCharacteristicDetails": {}
                }
              },
              {
                "rowDetails": {
                  "seatRowNumber": 23,
                  "seatOccupationDetails": [
                    {
                      "seatColumn": "A",
                      "seatOccupation": "F",
                      "seatCharacteristic": [
                        "5"
                      ]
                    },
                    {
                      "seatColumn": "B",
                      "seatOccupation": "F",
                      "seatCharacteristic": [
                        "5"
                      ]
                    },
                    {
                      "seatColumn": "C",
                      "seatOccupation": "F",
                      "seatCharacteristic": [
                        "5"
                      ]
                    },
                    {
                      "seatColumn": "D",
                      "seatOccupation": "F",
                      "seatCharacteristic": [
                        "5"
                      ]
                    },
                    {
                      "seatColumn": "E",
                      "seatOccupation": "F",
                      "seatCharacteristic": [
                        "5"
                      ]
                    },
                    {
                      "seatColumn": "F",
                      "seatOccupation": "F",
                      "seatCharacteristic": [
                        "5"
                      ]
                    }
                  ],
                  "rowCharacteristicDetails": {}
                }
              },
              {
                "rowDetails": {
                  "seatRowNumber": 24,
                  "seatOccupationDetails": [
                    {
                      "seatColumn": "A",
                      "seatOccupation": "F",
                      "seatCharacteristic": [
                        "5"
                      ]
                    },
                    {
                      "seatColumn": "B",
                      "seatOccupation": "F",
                      "seatCharacteristic": [
                        "5"
                      ]
                    },
                    {
                      "seatColumn": "C",
                      "seatOccupation": "F",
                      "seatCharacteristic": [
                        "5"
                      ]
                    },
                    {
                      "seatColumn": "D",
                      "seatOccupation": "F",
                      "seatCharacteristic": [
                        "5"
                      ]
                    },
                    {
                      "seatColumn": "E",
                      "seatOccupation": "F",
                      "seatCharacteristic": [
                        "5"
                      ]
                    },
                    {
                      "seatColumn": "F",
                      "seatOccupation": "F",
                      "seatCharacteristic": [
                        "5"
                      ]
                    }
                  ],
                  "rowCharacteristicDetails": {}
                }
              },
              {
                "rowDetails": {
                  "seatRowNumber": 25,
                  "seatOccupationDetails": [
                    {
                      "seatColumn": "A",
                      "seatOccupation": "F",
                      "seatCharacteristic": [
                        "5"
                      ]
                    },
                    {
                      "seatColumn": "B",
                      "seatOccupation": "F",
                      "seatCharacteristic": [
                        "5"
                      ]
                    },
                    {
                      "seatColumn": "C",
                      "seatOccupation": "F",
                      "seatCharacteristic": [
                        "5"
                      ]
                    },
                    {
                      "seatColumn": "D",
                      "seatOccupation": "F",
                      "seatCharacteristic": [
                        "5"
                      ]
                    },
                    {
                      "seatColumn": "E",
                      "seatOccupation": "F",
                      "seatCharacteristic": [
                        "5"
                      ]
                    },
                    {
                      "seatColumn": "F",
                      "seatOccupation": "F",
                      "seatCharacteristic": [
                        "5"
                      ]
                    }
                  ],
                  "rowCharacteristicDetails": {}
                }
              },
              {
                "rowDetails": {
                  "seatRowNumber": 26,
                  "seatOccupationDetails": [
                    {
                      "seatColumn": "A",
                      "seatOccupation": "F",
                      "seatCharacteristic": [
                        "5"
                      ]
                    },
                    {
                      "seatColumn": "B",
                      "seatOccupation": "F",
                      "seatCharacteristic": [
                        "5"
                      ]
                    },
                    {
                      "seatColumn": "C",
                      "seatOccupation": "F",
                      "seatCharacteristic": [
                        "5"
                      ]
                    },
                    {
                      "seatColumn": "D",
                      "seatOccupation": "F",
                      "seatCharacteristic": [
                        "5"
                      ]
                    },
                    {
                      "seatColumn": "E",
                      "seatOccupation": "F",
                      "seatCharacteristic": [
                        "5"
                      ]
                    },
                    {
                      "seatColumn": "F",
                      "seatOccupation": "F",
                      "seatCharacteristic": [
                        "5"
                      ]
                    }
                  ],
                  "rowCharacteristicDetails": {}
                }
              },
              {
                "rowDetails": {
                  "seatRowNumber": 27,
                  "seatOccupationDetails": [
                    {
                      "seatColumn": "A",
                      "seatOccupation": "F",
                      "seatCharacteristic": [
                        "5"
                      ]
                    },
                    {
                      "seatColumn": "B",
                      "seatOccupation": "F",
                      "seatCharacteristic": [
                        "5"
                      ]
                    },
                    {
                      "seatColumn": "C",
                      "seatOccupation": "F",
                      "seatCharacteristic": [
                        "5"
                      ]
                    },
                    {
                      "seatColumn": "D",
                      "seatOccupation": "F",
                      "seatCharacteristic": [
                        "5"
                      ]
                    },
                    {
                      "seatColumn": "E",
                      "seatOccupation": "F",
                      "seatCharacteristic": [
                        "5"
                      ]
                    },
                    {
                      "seatColumn": "F",
                      "seatOccupation": "F",
                      "seatCharacteristic": [
                        "5"
                      ]
                    }
                  ],
                  "rowCharacteristicDetails": {}
                }
              },
              {
                "rowDetails": {
                  "seatRowNumber": 28,
                  "seatOccupationDetails": [
                    {
                      "seatColumn": "A",
                      "seatOccupation": "F",
                      "seatCharacteristic": [
                        "5"
                      ]
                    },
                    {
                      "seatColumn": "B",
                      "seatOccupation": "F",
                      "seatCharacteristic": [
                        "5"
                      ]
                    },
                    {
                      "seatColumn": "C",
                      "seatOccupation": "F",
                      "seatCharacteristic": [
                        "5"
                      ]
                    },
                    {
                      "seatColumn": "D",
                      "seatOccupation": "F",
                      "seatCharacteristic": [
                        "5"
                      ]
                    },
                    {
                      "seatColumn": "E",
                      "seatOccupation": "F",
                      "seatCharacteristic": [
                        "5"
                      ]
                    },
                    {
                      "seatColumn": "F",
                      "seatOccupation": "F",
                      "seatCharacteristic": [
                        "5"
                      ]
                    }
                  ],
                  "rowCharacteristicDetails": {}
                }
              }
            ]
          }
        ]
      }
    ]
  },
  "message": "Data retrieved successfully",
  "responseMessage": {
    "version": {
      "major": 1,
      "minor": 1,
      "build": -1,
      "revision": -1,
      "majorRevision": -1,
      "minorRevision": -1
    },
    "statusCode": 200,
    "reasonPhrase": "OK",
    "isSuccessStatusCode": true
  },
  "isSuccessful": true
}